<?xml version="1.0" encoding="UTF-8"?>
<svg width="22px" height="22px" viewBox="0 0 22 22" version="1.1" xmlns="http://www.w3.org/2000/svg" xmlns:xlink="http://www.w3.org/1999/xlink">
    <!-- Generator: Sketch 49.1 (51147) - http://www.bohemiancoding.com/sketch -->
    <title>多边形</title>
    <desc>Created with Sketch.</desc>
    <defs>
        <rect id="path-1" x="7" y="0.875" width="4" height="4"></rect>
        <rect id="path-2" x="17.625" y="4.375" width="4" height="4"></rect>
        <rect id="path-3" x="17.625" y="14.875" width="4" height="4"></rect>
        <rect id="path-4" x="7.125" y="18.375" width="4" height="4"></rect>
        <rect id="path-5" x="0.875" y="9.625" width="4" height="4"></rect>
    </defs>
    <g id="多边形" stroke="none" stroke-width="1" fill="none" fill-rule="evenodd">
        <g id="Group" transform="translate(-1.000000, -1.000000)">
            <g id="Group-13">
                <polygon id="Polygon" stroke="#67649F" stroke-width="2" fill="#F1F1F1" transform="translate(11.691608, 10.710970) rotate(-17.000000) translate(-11.691608, -10.710970) " points="11.6916083 2.31241368 20.5223732 8.72833992 17.1493212 19.1095266 6.23389548 19.1095266 2.86084345 8.72833992"></polygon>
                <g id="Rectangle-7">
                    <use fill="#FFFFFF" fill-rule="evenodd" xlink:href="#path-1"></use>
                    <rect stroke="#67649F" stroke-width="1" x="7.5" y="1.375" width="3" height="3"></rect>
                </g>
                <g id="Rectangle-7-Copy">
                    <use fill="#FFFFFF" fill-rule="evenodd" xlink:href="#path-2"></use>
                    <rect stroke="#67649F" stroke-width="1" x="18.125" y="4.875" width="3" height="3"></rect>
                </g>
                <g id="Rectangle-7-Copy-2">
                    <use fill="#FFFFFF" fill-rule="evenodd" xlink:href="#path-3"></use>
                    <rect stroke="#67649F" stroke-width="1" x="18.125" y="15.375" width="3" height="3"></rect>
                </g>
                <g id="Rectangle-7-Copy-3">
                    <use fill="#FFFFFF" fill-rule="evenodd" xlink:href="#path-4"></use>
                    <rect stroke="#67649F" stroke-width="1" x="7.625" y="18.875" width="3" height="3"></rect>
                </g>
                <g id="Rectangle-7-Copy-4">
                    <use fill="#FFFFFF" fill-rule="evenodd" xlink:href="#path-5"></use>
                    <rect stroke="#67649F" stroke-width="1" x="1.375" y="10.125" width="3" height="3"></rect>
                </g>
            </g>
            <rect id="Rectangle-31" x="1" y="1" width="22" height="22"></rect>
        </g>
    </g>
</svg>